predict-movies-rating-report
…
2.3) data exploration and visualization¶

since users are not a lot relatively with the data size the column will be important as surely users have perefrences to sepicifc geners, let's figure it out ...

In [39]:

user_gender_prefrences <- edx %>% filter(userId == 3) %>% group_by(userId,genres) %>% summarise(rating = mean(rating)) %>% print ## this grouped data will be used in ggplot to represet the relation between the two variables 

options(repr.plot.width = 20, repr.plot.height = 8)
ggplot(data = user_gender_prefrences , aes(x = genres , y = rating , fill = genres)) +
  geom_col() +
  ggtitle("ratings of the genres for a one user") +
  theme(plot.title = element_text(hjust = 0.5))

# A tibble: 25 x 3
# Groups:   userId [1]
   userId genres                              rating
    <int> <chr>                                <dbl>
 1      3 Action|Adventure|Comedy|Fantasy       5   
 2      3 Action|Adventure|Fantasy              3.75
 3      3 Action|Adventure|Thriller             2   
 4      3 Action|Drama|Romance|War              4.5 
 5      3 Action|Drama|War                      4.5 
 6      3 Action|Romance|War|Western            3.5 
 7      3 Adventure|Animation|Children|Comedy   4   
 8      3 Animation|Children|Comedy|Crime       4   
 9      3 Comedy                                3.25
10      3 Comedy|Crime                          4   
#  with 15 more rows
…
